%YAML 1.1
%TAG !u! tag:unity3d.com,2011:
--- !u!114 &11400000
MonoBehaviour:
  m_ObjectHideFlags: 0
  m_CorrespondingSourceObject: {fileID: 0}
  m_PrefabInstance: {fileID: 0}
  m_PrefabAsset: {fileID: 0}
  m_GameObject: {fileID: 0}
  m_Enabled: 1
  m_EditorHideFlags: 0
  m_Script: {fileID: 11500000, guid: bbe2301357943d445932b7498f6b8400, type: 3}
  m_Name: NecroticSwarm_DestroyOnTrigger
  m_EditorClassIdentifier: 
  layersToAvoid:
    serializedVersion: 2
    m_Bits: 0
