%YAML 1.1
%TAG !u! tag:unity3d.com,2011:
--- !u!114 &11400000
MonoBehaviour:
  m_ObjectHideFlags: 0
  m_CorrespondingSourceObject: {fileID: 0}
  m_PrefabInstance: {fileID: 0}
  m_PrefabAsset: {fileID: 0}
  m_GameObject: {fileID: 0}
  m_Enabled: 1
  m_EditorHideFlags: 0
  m_Script: {fileID: 11500000, guid: 9f6f8838337e69546b8dd5a1a28af9ab, type: 3}
  m_Name: 31.RoomHeal
  m_EditorClassIdentifier: 
  name: Clear Mind
  sprite: {fileID: 21300000, guid: 02633b1aa0bf77143a78f014c29e2b43, type: 3}
  description: Heals you after clearing a Room
  rarity: 1
  cost: 123
  onEquipEvent:
    m_PersistentCalls:
      m_Calls: []
    m_TypeName: UnityEngine.Events.UnityEvent, UnityEngine.CoreModule, Version=0.0.0.0,
      Culture=neutral, PublicKeyToken=null
  gameEvent: {fileID: 11400000, guid: 268606bf245872e4985eac0baa289177, type: 2}
  unityEvent:
    m_PersistentCalls:
      m_Calls:
      - m_Target: {fileID: 11400000, guid: f6a0db610746b144ab25b90dff130ac6, type: 2}
        m_MethodName: Heal
        m_Mode: 4
        m_Arguments:
          m_ObjectArgument: {fileID: 0}
          m_ObjectArgumentAssemblyTypeName: UnityEngine.Object, UnityEngine
          m_IntArgument: 0
          m_FloatArgument: 30
          m_StringArgument: 
          m_BoolArgument: 0
        m_CallState: 2
    m_TypeName: UnityEngine.Events.UnityEvent, UnityEngine.CoreModule, Version=0.0.0.0,
      Culture=neutral, PublicKeyToken=null
  destructible: 0
  usesBeforeDestruction: 5
  hasCooldown: 0
  baseCooldown: 0
  onUnequipEvent:
    m_PersistentCalls:
      m_Calls: []
    m_TypeName: UnityEngine.Events.UnityEvent, UnityEngine.CoreModule, Version=0.0.0.0,
      Culture=neutral, PublicKeyToken=null
  trinketComponents: []
