%YAML 1.1
%TAG !u! tag:unity3d.com,2011:
--- !u!114 &11400000
MonoBehaviour:
  m_ObjectHideFlags: 0
  m_CorrespondingSourceObject: {fileID: 0}
  m_PrefabInstance: {fileID: 0}
  m_PrefabAsset: {fileID: 0}
  m_GameObject: {fileID: 0}
  m_Enabled: 1
  m_EditorHideFlags: 0
  m_Script: {fileID: 11500000, guid: 9f6f8838337e69546b8dd5a1a28af9ab, type: 3}
  m_Name: 67.Resuscitate_TESTED
  m_EditorClassIdentifier: 
  name: Resuscitator
  sprite: {fileID: 21300000, guid: 0b98e5528613b924e8a1a98c9b98f29e, type: 3}
  description: The next mortal blow revives you to full health
  rarity: 4
  cost: 900
  onEquipEvent:
    m_PersistentCalls:
      m_Calls: []
    m_TypeName: UnityEngine.Events.UnityEvent, UnityEngine.CoreModule, Version=0.0.0.0,
      Culture=neutral, PublicKeyToken=null
  gameEvent: {fileID: 11400000, guid: 44334b0f86e3fe74faf7dad143e4365a, type: 2}
  unityEvent:
    m_PersistentCalls:
      m_Calls:
      - m_Target: {fileID: 11400000, guid: f6a0db610746b144ab25b90dff130ac6, type: 2}
        m_MethodName: HealPercentage
        m_Mode: 4
        m_Arguments:
          m_ObjectArgument: {fileID: 0}
          m_ObjectArgumentAssemblyTypeName: UnityEngine.Object, UnityEngine
          m_IntArgument: 0
          m_FloatArgument: 100
          m_StringArgument: 
          m_BoolArgument: 0
        m_CallState: 2
    m_TypeName: UnityEngine.Events.UnityEvent, UnityEngine.CoreModule, Version=0.0.0.0,
      Culture=neutral, PublicKeyToken=null
  destructible: 1
  usesBeforeDestruction: 1
  hasCooldown: 0
  baseCooldown: 0
  onUnequipEvent:
    m_PersistentCalls:
      m_Calls: []
    m_TypeName: UnityEngine.Events.UnityEvent, UnityEngine.CoreModule, Version=0.0.0.0,
      Culture=neutral, PublicKeyToken=null
  trinketComponents: []
