%YAML 1.1
%TAG !u! tag:unity3d.com,2011:
--- !u!114 &11400000
MonoBehaviour:
  m_ObjectHideFlags: 0
  m_CorrespondingSourceObject: {fileID: 0}
  m_PrefabInstance: {fileID: 0}
  m_PrefabAsset: {fileID: 0}
  m_GameObject: {fileID: 0}
  m_Enabled: 1
  m_EditorHideFlags: 0
  m_Script: {fileID: 11500000, guid: 2ae63c9ff0bad7342a47e19d6d2a76b7, type: 3}
  m_Name: SkullCompanion
  m_EditorClassIdentifier: 
  name: SkullCompanion
  description: 
  slot: 2
  sprite: {fileID: 21300000, guid: 89fc9c93be2d1bf4e9c2d85441e5822b, type: 3}
  normalRune: {fileID: 21300000, guid: a16531b4b93e8544aa34a1d85d3b6b73, type: 3}
  upgradedRune: {fileID: 0}
  audioClip: {fileID: 8300000, guid: 8e3be72eaf2e1d84eb6bf87ef5be9819, type: 3}
  animationName:
  - SkullCompanion
  prefab: {fileID: 7674444282442567000, guid: 0be8abc81dace3e4fae3c604e6dd3791, type: 3}
  baseCd: 8
  secondsToCast: 0.08
  mageRef: {fileID: 11400000, guid: f6a0db610746b144ab25b90dff130ac6, type: 2}
  baseSpell: {fileID: 0}
  upgradeSpell: {fileID: 11400000, guid: 5b1f636306acbd541bf9898234c66a63, type: 2}
  cost: 250
  effects:
  - {fileID: 11400000, guid: be5d3ec305357034f91a40a191ba1e54, type: 2}
  - {fileID: 11400000, guid: 149a4db5d497dd94ea7852ea6b0e5a27, type: 2}
