%YAML 1.1
%TAG !u! tag:unity3d.com,2011:
--- !u!114 &11400000
MonoBehaviour:
  m_ObjectHideFlags: 0
  m_CorrespondingSourceObject: {fileID: 0}
  m_PrefabInstance: {fileID: 0}
  m_PrefabAsset: {fileID: 0}
  m_GameObject: {fileID: 0}
  m_Enabled: 1
  m_EditorHideFlags: 0
  m_Script: {fileID: 11500000, guid: 49521ffa06a1ca048bdc51fab6a5eb0b, type: 3}
  m_Name: FrogSolo
  m_EditorClassIdentifier: 
  randomGroup: 0
  enemiesInSquad: 0
  enemyData:
  - enemyStats: {fileID: 11400000, guid: 8ef77e9f535e1554d875a66c0ee57f63, type: 2}
    spawnPosition: {x: 0, y: 0, z: 0}
