%YAML 1.1
%TAG !u! tag:unity3d.com,2011:
--- !u!114 &11400000
MonoBehaviour:
  m_ObjectHideFlags: 0
  m_CorrespondingSourceObject: {fileID: 0}
  m_PrefabInstance: {fileID: 0}
  m_PrefabAsset: {fileID: 0}
  m_GameObject: {fileID: 0}
  m_Enabled: 1
  m_EditorHideFlags: 0
  m_Script: {fileID: 11500000, guid: 4a841af544a6d8646b6cac99312db202, type: 3}
  m_Name: SkullCompanion_SpawnPerTick
  m_EditorClassIdentifier: 
  objToSpawn:
  - {fileID: 11400000, guid: 36662cbcc3dae8b4fa08d1e636a64cbe, type: 2}
  rate: 1
