%YAML 1.1
%TAG !u! tag:unity3d.com,2011:
--- !u!114 &11400000
MonoBehaviour:
  m_ObjectHideFlags: 0
  m_CorrespondingSourceObject: {fileID: 0}
  m_PrefabInstance: {fileID: 0}
  m_PrefabAsset: {fileID: 0}
  m_GameObject: {fileID: 0}
  m_Enabled: 1
  m_EditorHideFlags: 0
  m_Script: {fileID: 11500000, guid: c5d814ee64a5c0c49b9701036b26b71a, type: 3}
  m_Name: Cult_Hela
  m_EditorClassIdentifier: 
  name: Hela
  sprite: {fileID: 21300000, guid: 9f68cdff673927d4c89e872ff26cc7bb, type: 3}
  description: Her task is to reign over the realm of the dead, also called Hel or
    Neifelheim, where the dead peacefully go to in the afterlife.
  unlocked: 0
  basicSpellData: {fileID: 11400000, guid: f706c245d44801d48bf07b383efaa12c, type: 2}
  movSpellData: {fileID: 11400000, guid: 849f376a36007c544b63d016580f7318, type: 2}
  passiveSpellData: {fileID: 11400000, guid: 9592bd1cbd92bd146af220b457ae5a05, type: 2}
