%YAML 1.1
%TAG !u! tag:unity3d.com,2011:
--- !u!114 &11400000
MonoBehaviour:
  m_ObjectHideFlags: 0
  m_CorrespondingSourceObject: {fileID: 0}
  m_PrefabInstance: {fileID: 0}
  m_PrefabAsset: {fileID: 0}
  m_GameObject: {fileID: 0}
  m_Enabled: 1
  m_EditorHideFlags: 0
  m_Script: {fileID: 11500000, guid: 2ae63c9ff0bad7342a47e19d6d2a76b7, type: 3}
  m_Name: CursedBones
  m_EditorClassIdentifier: 
  name: CursedBones
  description: Crack your bones to increase speed.
  slot: 3
  sprite: {fileID: 21300000, guid: f70b55aca3521db4390637a2e9d23660, type: 3}
  normalRune: {fileID: 21300000, guid: 2c618c172196c8647864b3b277ed9400, type: 3}
  upgradedRune: {fileID: 0}
  audioClip: {fileID: 8300000, guid: 34a9087d5c4dba04fafe1ede3b1694d5, type: 3}
  animationName:
  - CursedBones
  prefab: {fileID: 1393334510051877606, guid: 2fcf60221461fb34ba49a05a9e92eace, type: 3}
  baseCd: 8
  secondsToCast: 0
  mageRef: {fileID: 11400000, guid: f6a0db610746b144ab25b90dff130ac6, type: 2}
  baseSpell: {fileID: 0}
  upgradeSpell: {fileID: 0}
  cost: 250
  effects:
  - {fileID: 11400000, guid: 55bad7381aa699140974f8e086f00d29, type: 2}
