%YAML 1.1
%TAG !u! tag:unity3d.com,2011:
--- !u!114 &11400000
MonoBehaviour:
  m_ObjectHideFlags: 0
  m_CorrespondingSourceObject: {fileID: 0}
  m_PrefabInstance: {fileID: 0}
  m_PrefabAsset: {fileID: 0}
  m_GameObject: {fileID: 0}
  m_Enabled: 1
  m_EditorHideFlags: 0
  m_Script: {fileID: 11500000, guid: fbe73b2e8ac305045881b1f2abdbd149, type: 3}
  m_Name: SniperIdle
  m_EditorClassIdentifier: 
  actions: []
  transitions:
  - decision: {fileID: 11400000, guid: 4b0ef89dba9cc00498f015ebefa8d24b, type: 2}
    trueState: {fileID: 11400000, guid: 6b720ee0915f15d459b58c4fe671c275, type: 2}
    falseState: {fileID: 11400000, guid: 8f16f58adf1dc314a8a75a7ff3c17331, type: 2}
  sceneGizmoColor: {r: 0.5, g: 0.5, b: 0.5, a: 1}
