%YAML 1.1
%TAG !u! tag:unity3d.com,2011:
--- !u!181963792 &2655988077585873504
Preset:
  m_ObjectHideFlags: 0
  m_CorrespondingSourceObject: {fileID: 0}
  m_PrefabInstance: {fileID: 0}
  m_PrefabAsset: {fileID: 0}
  m_Name: RoomBasePreset
  m_TargetType:
    m_NativeTypeID: 114
    m_ManagedTypePPtr: {fileID: 11500000, guid: 0f1b9a3521c11474191ea7ea9d8bf968,
      type: 3}
    m_ManagedTypeFallback: 
  m_Properties:
  - target: {fileID: 0}
    propertyPath: m_Enabled
    value: 1
    objectReference: {fileID: 0}
  - target: {fileID: 0}
    propertyPath: m_EditorHideFlags
    value: 0
    objectReference: {fileID: 0}
  - target: {fileID: 0}
    propertyPath: m_EditorClassIdentifier
    value: 
    objectReference: {fileID: 0}
  - target: {fileID: 0}
    propertyPath: portalsContainer
    value: 
    objectReference: {fileID: 0}
  - target: {fileID: 0}
    propertyPath: currentPortals
    value: 0
    objectReference: {fileID: 0}
  - target: {fileID: 0}
    propertyPath: maxPortals
    value: 0
    objectReference: {fileID: 0}
  - target: {fileID: 0}
    propertyPath: enterRoomEvent
    value: 
    objectReference: {fileID: 11400000, guid: 90c35df8d39dacf43aea2649bcf96aae, type: 2}
  - target: {fileID: 0}
    propertyPath: roomClearedEvent
    value: 
    objectReference: {fileID: 11400000, guid: 268606bf245872e4985eac0baa289177, type: 2}
  - target: {fileID: 0}
    propertyPath: closePortalsOnEnter
    value: 1
    objectReference: {fileID: 0}
  - target: {fileID: 0}
    propertyPath: clearedRoom
    value: 0
    objectReference: {fileID: 0}
  - target: {fileID: 0}
    propertyPath: spawnManagerRef
    value: 
    objectReference: {fileID: 0}
  - target: {fileID: 0}
    propertyPath: roomType
    value: 1
    objectReference: {fileID: 0}
  - target: {fileID: 0}
    propertyPath: checker
    value: 
    objectReference: {fileID: 0}
  - target: {fileID: 0}
    propertyPath: checkerStartPos
    value: 
    objectReference: {fileID: 0}
  - target: {fileID: 0}
    propertyPath: data
    value: 
    objectReference: {fileID: 0}
  - target: {fileID: 0}
    propertyPath: box
    value: 
    objectReference: {fileID: 6877420261188739016, guid: 32e2f7ba7bef87b45947e1a778a816b6,
      type: 3}
