%YAML 1.1
%TAG !u! tag:unity3d.com,2011:
--- !u!114 &11400000
MonoBehaviour:
  m_ObjectHideFlags: 0
  m_CorrespondingSourceObject: {fileID: 0}
  m_PrefabInstance: {fileID: 0}
  m_PrefabAsset: {fileID: 0}
  m_GameObject: {fileID: 0}
  m_Enabled: 1
  m_EditorHideFlags: 0
  m_Script: {fileID: 11500000, guid: df0c808e2a2289d4ca82b1ff95627dc2, type: 3}
  m_Name: FrostGrenade
  m_EditorClassIdentifier: 
  name: Frost Grenade
  description: Explodes on hit.
  slot: 0
  sprite: {fileID: 21300000, guid: 9f06896dd640fe242a7ee08eccef4616, type: 3}
  audioClip: {fileID: 0}
  animationName: Attack
  prefab: {fileID: 4858514890421348910, guid: a21982c4b4530604198eef39cd9807b5, type: 3}
  baseCd: 0
  mageRef: {fileID: 11400000, guid: f6a0db610746b144ab25b90dff130ac6, type: 2}
  effects:
  - {fileID: 0}
  - {fileID: 0}
  - {fileID: 0}
  - {fileID: 0}
  force: 1500
  angle: -20
