%YAML 1.1
%TAG !u! tag:unity3d.com,2011:
--- !u!114 &11400000
MonoBehaviour:
  m_ObjectHideFlags: 0
  m_CorrespondingSourceObject: {fileID: 0}
  m_PrefabInstance: {fileID: 0}
  m_PrefabAsset: {fileID: 0}
  m_GameObject: {fileID: 0}
  m_Enabled: 1
  m_EditorHideFlags: 0
  m_Script: {fileID: 11500000, guid: 881767fc43a23804f947485dcaf32c84, type: 3}
  m_Name: NecroticSwarm
  m_EditorClassIdentifier: 
  name: Necrotic Swarm
  description: Throws a putrid insect swarm forward dealing damage over time to the
    affected enemy.
  slot: 1
  sprite: {fileID: 21300000, guid: 2ccdd1c6a06355f43a7ab312bbacad47, type: 3}
  normalRune: {fileID: 21300000, guid: 3831559f0f60cce439c5de27a685de32, type: 3}
  upgradedRune: {fileID: 0}
  audioClip: {fileID: 0}
  animationName:
  - NecroticR
  - NecroticL
  prefab: {fileID: 1079773173677681707, guid: 93695cbd01e5b6f4d98112d12ff30dc7, type: 3}
  baseCd: 7
  secondsToCast: 0.08
  mageRef: {fileID: 11400000, guid: f6a0db610746b144ab25b90dff130ac6, type: 2}
  baseSpell: {fileID: 11400000, guid: cf0ef01176d75b64eabd6ab60580403f, type: 2}
  upgradeSpell: {fileID: 0}
  cost: 250
  effects:
  - {fileID: 11400000, guid: 212ef21774752d145b26400b4cda663b, type: 2}
  - {fileID: 11400000, guid: 8a5fee7779eec9148b36be5143fade33, type: 2}
  - {fileID: 11400000, guid: e35cf212b62ac8f4c97dc79befb381e8, type: 2}
  - {fileID: 11400000, guid: e35cf212b62ac8f4c97dc79befb381e8, type: 2}
  force: 1500
