%YAML 1.1
%TAG !u! tag:unity3d.com,2011:
--- !u!114 &11400000
MonoBehaviour:
  m_ObjectHideFlags: 0
  m_CorrespondingSourceObject: {fileID: 0}
  m_PrefabInstance: {fileID: 0}
  m_PrefabAsset: {fileID: 0}
  m_GameObject: {fileID: 0}
  m_Enabled: 1
  m_EditorHideFlags: 0
  m_Script: {fileID: 11500000, guid: ec471f0a081420545a70b9ffbd3cbf13, type: 3}
  m_Name: TrinketPercentageComponent_LowHealthSpeedBuff
  m_EditorClassIdentifier: 
  mageStats: {fileID: 11400000, guid: f6a0db610746b144ab25b90dff130ac6, type: 2}
  statEnum: 0
  percentage: 0.5
  superiorTo: 0
  onCondition:
    m_PersistentCalls:
      m_Calls:
      - m_Target: {fileID: 11400000, guid: f6a0db610746b144ab25b90dff130ac6, type: 2}
        m_MethodName: SetSpeedMultiplicator
        m_Mode: 4
        m_Arguments:
          m_ObjectArgument: {fileID: 0}
          m_ObjectArgumentAssemblyTypeName: UnityEngine.Object, UnityEngine
          m_IntArgument: 0
          m_FloatArgument: 2
          m_StringArgument: 
          m_BoolArgument: 0
        m_CallState: 2
    m_TypeName: UnityEngine.Events.UnityEvent, UnityEngine.CoreModule, Version=0.0.0.0,
      Culture=neutral, PublicKeyToken=null
  onNotCondition:
    m_PersistentCalls:
      m_Calls:
      - m_Target: {fileID: 11400000, guid: f6a0db610746b144ab25b90dff130ac6, type: 2}
        m_MethodName: SetSpeedMultiplicator
        m_Mode: 4
        m_Arguments:
          m_ObjectArgument: {fileID: 0}
          m_ObjectArgumentAssemblyTypeName: UnityEngine.Object, UnityEngine
          m_IntArgument: 0
          m_FloatArgument: 1
          m_StringArgument: 
          m_BoolArgument: 0
        m_CallState: 2
    m_TypeName: UnityEngine.Events.UnityEvent, UnityEngine.CoreModule, Version=0.0.0.0,
      Culture=neutral, PublicKeyToken=null
